1.0000000000000000000000000
1.61803398895790200138026225
1.83928675535271937042527909
1.927561975405036111653328128
1.965948236608009696568369431
1.9835828434463123222207057700
1.9919641966006515016623997089
1.99603117973674017411435234737
1.99802947026261431789226243895
1.999018632709907537194192390058
1.999510401978288510220337607235
1.9997555009373239803975178427479
1.9998778327115468869026288849498
1.99993893874959484015644333458891
1.99996947543450331495587861316698
1.999984739347944109662942028603257
1.999992370110654554811757987183985
1.9999961851717602680318622628840137
1.9999980926168054312355947713534700
1.99999904631658851424062901090860135
1.99999952316045435506809716275941001
1.999999761580795618339743457970580872
1.999999880790547024050711239409435490
1.9999999403953125919993307431290580062
1.9999999701976665100682473163203647859
1.99999998509883591957164675346095741813
1.99999999254941865367551858361905411583
1.999999996274709507249041700071280988659
1.999999998137354800462060175019162721549
1.9999999990686774123740951497945995941672
1.9999999995343387093312339723434157095948
1.99999999976716935547876862845106708603662
1.99999999988358467794944848685642820265853
1.999999999941792339028934352278941707393767
1.999999999970896169528443219799069568031275
1.9999999999854480847678214999293075538702990
1.9999999999927240423848371922512320134582552
1.99999999999636202119265682414209946865659956
1.99999999999818101059638962343638760793195163
1.999999999999090505298210528149833484541121014
1.999999999999545252649109296580403091847057501
1.9999999999997726263245556822659672572885045881
1.9999999999998863131622781060892735896587511716
1.99999999999994315658113912089929641866215201653
1.99999999999997157829056957781720989872148100847
1.999999999999985789145284793351469567571288304911
1.999999999999992894572642397811694487304657001430
1.9999999999999964472863211991961480567737591041547
1.9999999999999982236431605996722269534776674248125
1.99999999999999911182158029985504613846413965224605
1.99999999999999955591079014993235484227654873826775
1.999999999999999777955395074967410016302682227922425
1.999999999999999888977697537484019319918265114458311
1.9999999999999999444888487687420897786448190667073289
1.9999999999999999722444243843710653041798200381140686
1.99999999999999998612221219218553785210075986460164000
1.99999999999999999306110609609277025012721669852647694
1.999999999999999996530553048046385462101348617029642898
1.999999999999999998265276524023192816814742144508934824
1.9999999999999999991326382620115964302245462235161257257
1.9999999999999999995663191310057982206606064476392601796
1.99999999999999999978315956550289911174089644480637513536
1.99999999999999999989157978275144955622897399940398526224
1.999999999999999999945789891375724778205587811890719913585
1.999999999999999999972894945687862389125936450977173742182
1.9999999999999999999864474728439311945688456972426983086408
1.9999999999999999999932237364219655972859151754339165115095
1.99999999999999999999661186821098279864333640913860996950261
1.99999999999999999999830593410549139932176434485434538180093
1.999999999999999999999152967052745699660906566230839657316037
1.999999999999999999999576483526372849830459471249438287050204
1.9999999999999999999997882417631864249152313050789991873202214
1.9999999999999999999998941208815932124576160505082634619081589
1.99999999999999999999994706044079660622880812614762116234090854
1.99999999999999999999997353022039830311440408864750755509836581
1.999999999999999999999986765110199151557202050804759175051461860
1.999999999999999999999993382555099575778601027044526225406375935
1.9999999999999999999999966912775497878893005139382735942996180355
1.9999999999999999999999983456387748939446502570745078730804837389
1.99999999999999999999999917281938744697232512856393881940580235077
1.99999999999999999999999958640969372348616256428872615889001424598
1.999999999999999999999999793204846861743081282146073648859466128203
1.999999999999999999999999896602423430871540641073469812312767999796
1.9999999999999999999999999483012117154357703205368444895094977799196
1.9999999999999999999999999741506058577178851602684499746886160964896
1.99999999999999999999999998707530292885894258013423200335167204025839
1.99999999999999999999999999353765146442947129006711777655865131572786
1.999999999999999999999999996768825732214735645033559337220273056162420
1.999999999999999999999999998384412866107367822516779782150434271255537
1.9999999999999999999999999991922064330536839112583899197865567948212762
1.9999999999999999999999999995961032165268419556291949671526796180589967
1.99999999999999999999999999979805160826342097781459748541158169065408335
1.99999999999999999999999999989902580413171048890729874316969920984881178
1.999999999999999999999999999949512902065855244453649371702101169583754377
1.999999999999999999999999999974756451032927622226824685880682094338940801
1.9999999999999999999999999999873782255164638111134123429478285791517929261
1.9999999999999999999999999999936891127582319055567061714758060862203662501
1.99999999999999999999999999999684455637911595277835308573838097068352286075
1.99999999999999999999999999999842227818955797638917654286931121183815193652
1.999999999999999999999999999999211139094778988194588271434686098693937487856
1.999999999999999999999999999999605569547389494097294135717350750328375097091
1.9999999999999999999999999999998027847736947470486470678586773198564618801523
1.9999999999999999999999999999999013923868473735243235339293391509630302088069
1.99999999999999999999999999999995069619342368676216176696466969945564759304336
1.99999999999999999999999999999997534809671184338108088348233488102521508654598
1.999999999999999999999999999999987674048355921690540441741167448412919907745142
1.999999999999999999999999999999993837024177960845270220870583726200529180482129
1.9999999999999999999999999999999969185120889804226351104352918636035296807663337
1.9999999999999999999999999999999984592560444902113175552176459319287680589827042
1.99999999999999999999999999999999922962802224510565877760882296599643157063329141
1.99999999999999999999999999999999961481401112255282938880441148300630185472514428
1.999999999999999999999999999999999807407005561276414694402205741505190990745450222
1.999999999999999999999999999999999903703502780638207347201102870753110147726132991
1.9999999999999999999999999999999999518517513903191036736005514353766848960783405552
1.9999999999999999999999999999999999759258756951595518368002757176883751933747193150
1.99999999999999999999999999999999998796293784757977591840013785884419585546667954746
1.99999999999999999999999999999999999398146892378988795920006892942210001053952790388
1.999999999999999999999999999999999996990734461894943979600034464711050530499150523887
1.999999999999999999999999999999999998495367230947471989800017232355525397688881789784
1.9999999999999999999999999999999999992476836154737359949000086161777627322372574980657
1.9999999999999999999999999999999999996238418077368679974500043080888813745375803926296
1.99999999999999999999999999999999999981192090386843399872500215404444068939121498041479
1.99999999999999999999999999999999999990596045193421699936250107702222034523063540453261
1.999999999999999999999999999999999999952980225967108499681250538511110172750180110422657
1.999999999999999999999999999999999999976490112983554249840625269255555086409082014644180
1.9999999999999999999999999999999999999882450564917771249203126346277775432131080865287439
1.9999999999999999999999999999999999999941225282458885624601563173138887716087130854031456
1.99999999999999999999999999999999999999706126412294428123007815865694438580490062132054374
1.99999999999999999999999999999999999999853063206147214061503907932847219290258740983608399
1.999999999999999999999999999999999999999265316030736070307519539664236096451328249592262374
1.999999999999999999999999999999999999999632658015368035153759769832118048225672828434753118
1.9999999999999999999999999999999999999998163290076840175768798849160590241128386069945487510
1.9999999999999999999999999999999999999999081645038420087884399424580295120564198559084466008
1.99999999999999999999999999999999999999995408225192100439421997122901475602821006711123615104
1.99999999999999999999999999999999999999997704112596050219710998561450737801410506860842623676
1.999999999999999999999999999999999999999988520562980251098554992807253689007052543133303895837
1.999999999999999999999999999999999999999994260281490125549277496403626844503526273790396826569
1.9999999999999999999999999999999999999999971301407450627746387482018134222517631374552526790184
1.9999999999999999999999999999999999999999985650703725313873193741009067111258815688686694174606
1.99999999999999999999999999999999999999999928253518626569365968705045335556294078446985285609765
1.99999999999999999999999999999999999999999964126759313284682984352522667778147039224387030936053
1.999999999999999999999999999999999999999999820633796566423414921762613338890735196124187211125655
1.999999999999999999999999999999999999999999910316898283211707460881306669445367598062660641203542
1.9999999999999999999999999999999999999999999551584491416058537304406533347226837990314730848942915
1.9999999999999999999999999999999999999999999775792245708029268652203266673613418995157724848658613
1.99999999999999999999999999999999999999999998878961228540146343261016333368067094975789529087400588
1.99999999999999999999999999999999999999999999439480614270073171630508166684033547487894992325637084
1.999999999999999999999999999999999999999999997197403071350365858152540833420167737439475535010302165
1.999999999999999999999999999999999999999999998598701535675182929076270416710083868719737911832498962
1.9999999999999999999999999999999999999999999992993507678375914645381352083550419343598689922435411244
1.9999999999999999999999999999999999999999999996496753839187957322690676041775209671799345052649571413
1.99999999999999999999999999999999999999999999982483769195939786613453380208876048358996725493361613251
1.99999999999999999999999999999999999999999999991241884597969893306726690104438024179498362804592768599
1.999999999999999999999999999999999999999999999956209422989849466533633450522190120897491814168702555247
1.999999999999999999999999999999999999999999999978104711494924733266816725261095060448745907121025657515
1.9999999999999999999999999999999999999999999999890523557474623666334083626305475302243729535697413491881
1.9999999999999999999999999999999999999999999999945261778737311833167041813152737651121864767871927860660
1.99999999999999999999999999999999999999999999999726308893686559165835209065763688255609323839418066624205
1.99999999999999999999999999999999999999999999999863154446843279582917604532881844127804661919723733775856
1.999999999999999999999999999999999999999999999999315772234216397914588022664409220639023309598655654122484
1.999999999999999999999999999999999999999999999999657886117108198957294011332204610319511654799337131892997
1.9999999999999999999999999999999999999999999999998289430585540994786470056661023051597558273996709067846759
1.9999999999999999999999999999999999999999999999999144715292770497393235028330511525798779136998360422594419
1.99999999999999999999999999999999999999999999999995723576463852486966175141652557628993895684991816926088687
1.99999999999999999999999999999999999999999999999997861788231926243483087570826278814496947842495912189183239
1.999999999999999999999999999999999999999999999999989308941159631217415437854131394072484739212479570318412805
1.999999999999999999999999999999999999999999999999994654470579815608707718927065697036242369606239787516617897
1.9999999999999999999999999999999999999999999999999973272352899078043538594635328485181211848031198943512336576
1.9999999999999999999999999999999999999999999999999986636176449539021769297317664242590605924015599473247409650
1.99999999999999999999999999999999999999999999999999933180882247695108846486588321212953029620077997369987475629
1.99999999999999999999999999999999999999999999999999966590441123847554423243294160606476514810038998685936925652
1.999999999999999999999999999999999999999999999999999832952205619237772116216470803032382574050194993432056550337
1.999999999999999999999999999999999999999999999999999916476102809618886058108235401516191287025097496716624743808
1.9999999999999999999999999999999999999999999999999999582380514048094430290541177007580956435125487483584623610942
1.9999999999999999999999999999999999999999999999999999791190257024047215145270588503790478217562743741792688958522
1.99999999999999999999999999999999999999999999999999998955951285120236075726352942518952391087813718708964393125425
1.99999999999999999999999999999999999999999999999999999477975642560118037863176471259476195543906859354482435008464
1.999999999999999999999999999999999999999999999999999997389878212800590189315882356297380977719534296772412774563064
1.999999999999999999999999999999999999999999999999999998694939106400295094657941178148690488859767148386206538013310
1.9999999999999999999999999999999999999999999999999999993474695532001475473289705890743452444298835741931033069024978
1.9999999999999999999999999999999999999999999999999999996737347766000737736644852945371726222149417870965516629784340
1.99999999999999999999999999999999999999999999999999999983686738830003688683224264726858631110747089354827583388431943
1.99999999999999999999999999999999999999999999999999999991843369415001844341612132363429315555373544677413791754426185
1.999999999999999999999999999999999999999999999999999999959216847075009221708060661817146577776867723387068958923488090
1.999999999999999999999999999999999999999999999999999999979608423537504610854030330908573288888433861693534479499791245
1.9999999999999999999999999999999999999999999999999999999898042117687523054270151654542866444442169308467672397594593995
1.9999999999999999999999999999999999999999999999999999999949021058843761527135075827271433222221084654233836198821336382
1.99999999999999999999999999999999999999999999999999999999745105294218807635675379136357166111105423271169180994167105231
1.99999999999999999999999999999999999999999999999999999999872552647109403817837689568178583055552711635584590497098739659
1.999999999999999999999999999999999999999999999999999999999362763235547019089188447840892915277763558177922952485531868943
1.999999999999999999999999999999999999999999999999999999999681381617773509544594223920446457638881779088961476242775527892
1.9999999999999999999999999999999999999999999999999999999998406908088867547722971119602232288194408895444807381213901749905
1.9999999999999999999999999999999999999999999999999999999999203454044433773861485559801116144097204447722403690606956934289
1.99999999999999999999999999999999999999999999999999999999996017270222168869307427799005580720486022238612018453034799899094
1.99999999999999999999999999999999999999999999999999999999998008635111084434653713899502790360243011119306009226517403776287
1.999999999999999999999999999999999999999999999999999999999990043175555422173268569497513951801215055596530046132587028497858
1.999999999999999999999999999999999999999999999999999999999995021587777711086634284748756975900607527798265023066293516665426
1.9999999999999999999999999999999999999999999999999999999999975107938888555433171423743784879503037638991325115331467589399355
1.9999999999999999999999999999999999999999999999999999999999987553969444277716585711871892439751518819495662557665733796225479
1.99999999999999999999999999999999999999999999999999999999999937769847221388582928559359462198757594097478312788328668984961260
1.99999999999999999999999999999999999999999999999999999999999968884923610694291464279679731099378797048739156394164334493443937
1.999999999999999999999999999999999999999999999999999999999999844424618053471457321398398655496893985243695781970821672469640057
1.999999999999999999999999999999999999999999999999999999999999922212309026735728660699199327748446992621847890985410836235428146
1.9999999999999999999999999999999999999999999999999999999999999611061545133678643303495996638742234963109239454927054181178668590
1.9999999999999999999999999999999999999999999999999999999999999805530772566839321651747998319371117481554619727463527090589718150
1.99999999999999999999999999999999999999999999999999999999999999027653862834196608258739991596855587407773098637317635452949555118
1.99999999999999999999999999999999999999999999999999999999999999513826931417098304129369995798427793703886549318658817726475019833
1.999999999999999999999999999999999999999999999999999999999999997569134657085491520646849978992138968519432746593294088632375707801
1.999999999999999999999999999999999999999999999999999999999999998784567328542745760323424989496069484259716373296647044316188006798
1.9999999999999999999999999999999999999999999999999999999999999993922836642713728801617124947480347421298581866483235221580940418084
1.9999999999999999999999999999999999999999999999999999999999999996961418321356864400808562473740173710649290933241617610790470305527
1.99999999999999999999999999999999999999999999999999999999999999984807091606784322004042812368700868553246454666208088053952351770000
1.99999999999999999999999999999999999999999999999999999999999999992403545803392161002021406184350434276623227333104044026976175945880
1.999999999999999999999999999999999999999999999999999999999999999962017729016960805010107030921752171383116136665520220134880879882320
1.999999999999999999999999999999999999999999999999999999999999999981008864508480402505053515460876085691558068332760110067440439979571
1.9999999999999999999999999999999999999999999999999999999999999999905044322542402012525267577304380428457790341663800550337202199994331
1.9999999999999999999999999999999999999999999999999999999999999999952522161271201006262633788652190214228895170831900275168601100021397
1.99999999999999999999999999999999999999999999999999999999999999999762610806356005031313168943260951071144475854159501375843005500167849
1.99999999999999999999999999999999999999999999999999999999999999999881305403178002515656584471630475535572237927079750687921502750099211
1.999999999999999999999999999999999999999999999999999999999999999999406527015890012578282922358152377677861189635398753439607513750534444
1.999999999999999999999999999999999999999999999999999999999999999999703263507945006289141461179076188838930594817699376719803756875276864
1.9999999999999999999999999999999999999999999999999999999999999999998516317539725031445707305895380944194652974088496883599018784376408533
1.9999999999999999999999999999999999999999999999999999999999999999999258158769862515722853652947690472097326487044248441799509392188210348
1.99999999999999999999999999999999999999999999999999999999999999999996290793849312578614268264738452360486632435221242208997546960941067009
1.99999999999999999999999999999999999999999999999999999999999999999998145396924656289307134132369226180243316217610621104498773480470537340
1.999999999999999999999999999999999999999999999999999999999999999999990726984623281446535670661846130901216581088053105522493867402352696330
1.999999999999999999999999999999999999999999999999999999999999999999995363492311640723267835330923065450608290544026552761246933701176350583
1.9999999999999999999999999999999999999999999999999999999999999999999976817461558203616339176654615327253041452720132763806234668505881758990
1.9999999999999999999999999999999999999999999999999999999999999999999988408730779101808169588327307663626520726360066381903117334252940881020
1.99999999999999999999999999999999999999999999999999999999999999999999942043653895509040847941636538318132603631800331909515586671264704408929
1.99999999999999999999999999999999999999999999999999999999999999999999971021826947754520423970818269159066301815900165954757793335632352205426
1.999999999999999999999999999999999999999999999999999999999999999999999855109134738772602119854091345795331509079500829773788966678161761029544
1.999999999999999999999999999999999999999999999999999999999999999999999927554567369386301059927045672897665754539750414886894483339080880515378
1.9999999999999999999999999999999999999999999999999999999999999999999999637772836846931505299635228364488328772698752074434472416695404402578412
1.9999999999999999999999999999999999999999999999999999999999999999999999818886418423465752649817614182244164386349376037217236208347702201289588
1.99999999999999999999999999999999999999999999999999999999999999999999999094432092117328763249088070911220821931746880186086181041738511006448900
1.99999999999999999999999999999999999999999999999999999999999999999999999547216046058664381624544035455610410965873440093043090520869255503224691
1.999999999999999999999999999999999999999999999999999999999999999999999997736080230293321908122720177278052054829367200465215452604346277516124060
1.999999999999999999999999999999999999999999999999999999999999999999999998868040115146660954061360088639026027414683600232607726302173138758062182
1.9999999999999999999999999999999999999999999999999999999999999999999999994340200575733304770306800443195130137073418001163038631510865693790311291
1.9999999999999999999999999999999999999999999999999999999999999999999999997170100287866652385153400221597565068536709000581519315755432846895155741
1.99999999999999999999999999999999999999999999999999999999999999999999999985850501439333261925767001107987825342683545002907596578777164234475778947
1.99999999999999999999999999999999999999999999999999999999999999999999999992925250719666630962883500553993912671341772501453798289388582117237889534
1.999999999999999999999999999999999999999999999999999999999999999999999999964626253598333154814417502769969563356708862507268991446942910586189447822
1.999999999999999999999999999999999999999999999999999999999999999999999999982313126799166577407208751384984781678354431253634495723471455293094723949
1.9999999999999999999999999999999999999999999999999999999999999999999999999911565633995832887036043756924923908391772156268172478617357276465473619839
1.9999999999999999999999999999999999999999999999999999999999999999999999999955782816997916443518021878462461954195886078134086239308678638232736809944
1.99999999999999999999999999999999999999999999999999999999999999999999999999778914084989582217590109392312309770979430390670431196543393191163684049778
1.99999999999999999999999999999999999999999999999999999999999999999999999999889457042494791108795054696156154885489715195335215598271696595581842024904
1.999999999999999999999999999999999999999999999999999999999999999999999999999447285212473955543975273480780774427448575976676077991358482977909210124559
1.999999999999999999999999999999999999999999999999999999999999999999999999999723642606236977771987636740390387213724287988338038995679241488954605062289
1.9999999999999999999999999999999999999999999999999999999999999999999999999998618213031184888859938183701951936068621439941690194978396207444773025311470
1.9999999999999999999999999999999999999999999999999999999999999999999999999999309106515592444429969091850975968034310719970845097489198103722386512655741
1.99999999999999999999999999999999999999999999999999999999999999999999999999996545532577962222149845459254879840171553599854225487445990518611932563278720
1.99999999999999999999999999999999999999999999999999999999999999999999999999998272766288981111074922729627439920085776799927112743722995259305966281639364
1.999999999999999999999999999999999999999999999999999999999999999999999999999991363831444905555374613648137199600428883999635563718614976296529831408196828
1.999999999999999999999999999999999999999999999999999999999999999999999999999995681915722452777687306824068599800214441999817781859307488148264915704098416
1.9999999999999999999999999999999999999999999999999999999999999999999999999999978409578612263888436534120342999001072209999088909296537440741324578520492088
1.9999999999999999999999999999999999999999999999999999999999999999999999999999989204789306131944218267060171499500536104999544454648268720370662289260246045
1.99999999999999999999999999999999999999999999999999999999999999999999999999999946023946530659721091335300857497502680524997722273241343601853311446301230231
1.99999999999999999999999999999999999999999999999999999999999999999999999999999973011973265329860545667650428748751340262498861136620671800926655723150615116
1.999999999999999999999999999999999999999999999999999999999999999999999999999999865059866326649302728338252143743756701312494305683103359004633278615753075585
1.999999999999999999999999999999999999999999999999999999999999999999999999999999932529933163324651364169126071871878350656247152841551679502316639307876537793
1.9999999999999999999999999999999999999999999999999999999999999999999999999999999662649665816623256820845630359359391753281235764207758397511583196539382688966
1.9999999999999999999999999999999999999999999999999999999999999999999999999999999831324832908311628410422815179679695876640617882103879198755791598269691344483
1.99999999999999999999999999999999999999999999999999999999999999999999999999999999156624164541558142052114075898398479383203089410519395993778957991348456722418
1.99999999999999999999999999999999999999999999999999999999999999999999999999999999578312082270779071026057037949199239691601544705259697996889478995674228361209
1.999999999999999999999999999999999999999999999999999999999999999999999999999999997891560411353895355130285189745996198458007723526298489984447394978371141806047
1.999999999999999999999999999999999999999999999999999999999999999999999999999999998945780205676947677565142594872998099229003861763149244992223697489185570903024
1.9999999999999999999999999999999999999999999999999999999999999999999999999999999994728901028384738387825712974364990496145019308815746224961118487445927854515120
1.9999999999999999999999999999999999999999999999999999999999999999999999999999999997364450514192369193912856487182495248072509654407873112480559243722963927257560
1.99999999999999999999999999999999999999999999999999999999999999999999999999999999986822252570961845969564282435912476240362548272039365562402796218614819636287800
1.99999999999999999999999999999999999999999999999999999999999999999999999999999999993411126285480922984782141217956238120181274136019682781201398109307409818143900
1.999999999999999999999999999999999999999999999999999999999999999999999999999999999967055631427404614923910706089781190600906370680098413906006990546537049090719501
1.999999999999999999999999999999999999999999999999999999999999999999999999999999999983527815713702307461955353044890595300453185340049206953003495273268524545359751
1.9999999999999999999999999999999999999999999999999999999999999999999999999999999999917639078568511537309776765224452976502265926700246034765017476366342622726798753
1.9999999999999999999999999999999999999999999999999999999999999999999999999999999999958819539284255768654888382612226488251132963350123017382508738183171311363399377
1.99999999999999999999999999999999999999999999999999999999999999999999999999999999999794097696421278843274441913061132441255664816750615086912543690915856556816996883
1.99999999999999999999999999999999999999999999999999999999999999999999999999999999999897048848210639421637220956530566220627832408375307543456271845457928278408498441
1.999999999999999999999999999999999999999999999999999999999999999999999999999999999999485244241053197108186104782652831103139162041876537717281359227289641392042492207
1.999999999999999999999999999999999999999999999999999999999999999999999999999999999999742622120526598554093052391326415551569581020938268858640679613644820696021246104
1.9999999999999999999999999999999999999999999999999999999999999999999999999999999999998713110602632992770465261956632077757847905104691344293203398068224103480106230519
1.9999999999999999999999999999999999999999999999999999999999999999999999999999999999999356555301316496385232630978316038878923952552345672146601699034112051740053115259
1.99999999999999999999999999999999999999999999999999999999999999999999999999999999999996782776506582481926163154891580194394619762761728360733008495170560258700265576296
1.99999999999999999999999999999999999999999999999999999999999999999999999999999999999998391388253291240963081577445790097197309881380864180366504247585280129350132788148
1.999999999999999999999999999999999999999999999999999999999999999999999999999999999999991956941266456204815407887228950485986549406904320901832521237926400646750663940741
1.999999999999999999999999999999999999999999999999999999999999999999999999999999999999995978470633228102407703943614475242993274703452160450916260618963200323375331970370
1.9999999999999999999999999999999999999999999999999999999999999999999999999999999999999979892353166140512038519718072376214966373517260802254581303094816001616876659851852
1.9999999999999999999999999999999999999999999999999999999999999999999999999999999999999989946176583070256019259859036188107483186758630401127290651547408000808438329925926
1.99999999999999999999999999999999999999999999999999999999999999999999999999999999999999949730882915351280096299295180940537415933793152005636453257737040004042191649629630
1.99999999999999999999999999999999999999999999999999999999999999999999999999999999999999974865441457675640048149647590470268707966896576002818226628868520002021095824814815
1.999999999999999999999999999999999999999999999999999999999999999999999999999999999999999874327207288378200240748237952351343539834482880014091133144342600010105479124074075
1.999999999999999999999999999999999999999999999999999999999999999999999999999999999999999937163603644189100120374118976175671769917241440007045566572171300005052739562037037
1.9999999999999999999999999999999999999999999999999999999999999999999999999999999999999999685818018220945500601870594880878358849586207200035227832860856500025263697810185187
1.9999999999999999999999999999999999999999999999999999999999999999999999999999999999999999842909009110472750300935297440439179424793103600017613916430428250012631848905092593
1.99999999999999999999999999999999999999999999999999999999999999999999999999999999999999999214545045552363751504676487202195897123965518000088069582152141250063159244525462966
1.99999999999999999999999999999999999999999999999999999999999999999999999999999999999999999607272522776181875752338243601097948561982759000044034791076070625031579622262731483
1.999999999999999999999999999999999999999999999999999999999999999999999999999999999999999998036362613880909378761691218005489742809913795000220173955380353125157898111313657416
1.999999999999999999999999999999999999999999999999999999999999999999999999999999999999999999018181306940454689380845609002744871404956897500110086977690176562578949055656828708
1.9999999999999999999999999999999999999999999999999999999999999999999999999999999999999999995090906534702273446904228045013724357024784487500550434888450882812894745278284143540
1.9999999999999999999999999999999999999999999999999999999999999999999999999999999999999999997545453267351136723452114022506862178512392243750275217444225441406447372639142071770
1.99999999999999999999999999999999999999999999999999999999999999999999999999999999999999999987727266336755683617260570112534310892561961218751376087221127207032236863195710358850
1.99999999999999999999999999999999999999999999999999999999999999999999999999999999999999999993863633168377841808630285056267155446280980609375688043610563603516118431597855179425
1.999999999999999999999999999999999999999999999999999999999999999999999999999999999999999999969318165841889209043151425281335777231404903046878440218052818017580592157989275897124
1.999999999999999999999999999999999999999999999999999999999999999999999999999999999999999999984659082920944604521575712640667888615702451523439220109026409008790296078994637948562
1.9999999999999999999999999999999999999999999999999999999999999999999999999999999999999999999923295414604723022607878563203339443078512257617196100545132045043951480394973189742811
1.9999999999999999999999999999999999999999999999999999999999999999999999999999999999999999999961647707302361511303939281601669721539256128808598050272566022521975740197486594871405
1.99999999999999999999999999999999999999999999999999999999999999999999999999999999999999999999808238536511807556519696408008348607696280644042990251362830112609878700987432974357027
1.99999999999999999999999999999999999999999999999999999999999999999999999999999999999999999999904119268255903778259848204004174303848140322021495125681415056304939350493716487178514
1.999999999999999999999999999999999999999999999999999999999999999999999999999999999999999999999520596341279518891299241020020871519240701610107475628407075281524696752468582435892569
1.999999999999999999999999999999999999999999999999999999999999999999999999999999999999999999999760298170639759445649620510010435759620350805053737814203537640762348376234291217946284
1.9999999999999999999999999999999999999999999999999999999999999999999999999999999999999999999998801490853198797228248102550052178798101754025268689071017688203811741881171456089731421
1.9999999999999999999999999999999999999999999999999999999999999999999999999999999999999999999999400745426599398614124051275026089399050877012634344535508844101905870940585728044865711
1.99999999999999999999999999999999999999999999999999999999999999999999999999999999999999999999997003727132996993070620256375130446995254385063171722677544220509529354702928640224328554
1.99999999999999999999999999999999999999999999999999999999999999999999999999999999999999999999998501863566498496535310128187565223497627192531585861338772110254764677351464320112164277
1.999999999999999999999999999999999999999999999999999999999999999999999999999999999999999999999992509317832492482676550640937826117488135962657929306693860551273823386757321600560821384
1.999999999999999999999999999999999999999999999999999999999999999999999999999999999999999999999996254658916246241338275320468913058744067981328964653346930275636911693378660800280410692
1.9999999999999999999999999999999999999999999999999999999999999999999999999999999999999999999999981273294581231206691376602344565293720339906644823266734651378184558466893304001402053460
1.9999999999999999999999999999999999999999999999999999999999999999999999999999999999999999999999990636647290615603345688301172282646860169953322411633367325689092279233446652000701026730
1.99999999999999999999999999999999999999999999999999999999999999999999999999999999999999999999999953183236453078016728441505861413234300849766612058166836628445461396167233260003505133649
1.99999999999999999999999999999999999999999999999999999999999999999999999999999999999999999999999976591618226539008364220752930706617150424883306029083418314222730698083616630001752566825
1.999999999999999999999999999999999999999999999999999999999999999999999999999999999999999999999999882958091132695041821103764653533085752124416530145417091571113653490418083150008762834123
1.999999999999999999999999999999999999999999999999999999999999999999999999999999999999999999999999941479045566347520910551882326766542876062208265072708545785556826745209041575004381417061
1.9999999999999999999999999999999999999999999999999999999999999999999999999999999999999999999999999707395227831737604552759411633832714380311041325363542728927784133726045207875021907085306
1.9999999999999999999999999999999999999999999999999999999999999999999999999999999999999999999999999853697613915868802276379705816916357190155520662681771364463892066863022603937510953542653
1.99999999999999999999999999999999999999999999999999999999999999999999999999999999999999999999999999268488069579344011381898529084581785950777603313408856822319460334315113019687554767713266
1.99999999999999999999999999999999999999999999999999999999999999999999999999999999999999999999999999634244034789672005690949264542290892975388801656704428411159730167157556509843777383856633
1.999999999999999999999999999999999999999999999999999999999999999999999999999999999999999999999999998171220173948360028454746322711454464876944008283522142055798650835787782549218886919283165
1.999999999999999999999999999999999999999999999999999999999999999999999999999999999999999999999999999085610086974180014227373161355727232438472004141761071027899325417893891274609443459641583
1.9999999999999999999999999999999999999999999999999999999999999999999999999999999999999999999999999995428050434870900071136865806778636162192360020708805355139496627089469456373047217298207913
1.9999999999999999999999999999999999999999999999999999999999999999999999999999999999999999999999999997714025217435450035568432903389318081096180010354402677569748313544734728186523608649103956
1.99999999999999999999999999999999999999999999999999999999999999999999999999999999999999999999999999988570126087177250177842164516946590405480900051772013387848741567723673640932618043245519781
1.99999999999999999999999999999999999999999999999999999999999999999999999999999999999999999999999999994285063043588625088921082258473295202740450025886006693924370783861836820466309021622759891
1.999999999999999999999999999999999999999999999999999999999999999999999999999999999999999999999999999971425315217943125444605411292366476013702250129430033469621853919309184102331545108113799453
1.999999999999999999999999999999999999999999999999999999999999999999999999999999999999999999999999999985712657608971562722302705646183238006851125064715016734810926959654592051165772554056899727
1.9999999999999999999999999999999999999999999999999999999999999999999999999999999999999999999999999999928563288044857813611513528230916190034255625323575083674054634798272960255828862770284498634
1.9999999999999999999999999999999999999999999999999999999999999999999999999999999999999999999999999999964281644022428906805756764115458095017127812661787541837027317399136480127914431385142249317
1.99999999999999999999999999999999999999999999999999999999999999999999999999999999999999999999999999999821408220112144534028783820577290475085639063308937709185136586995682400639572156925711246584
1.99999999999999999999999999999999999999999999999999999999999999999999999999999999999999999999999999999910704110056072267014391910288645237542819531654468854592568293497841200319786078462855623292
1.999999999999999999999999999999999999999999999999999999999999999999999999999999999999999999999999999999553520550280361335071959551443226187714097658272344272962841467489206001598930392314278116461
1.999999999999999999999999999999999999999999999999999999999999999999999999999999999999999999999999999999776760275140180667535979775721613093857048829136172136481420733744603000799465196157139058230
1.9999999999999999999999999999999999999999999999999999999999999999999999999999999999999999999999999999998883801375700903337679898878608065469285244145680860682407103668723015003997325980785695291152
1.9999999999999999999999999999999999999999999999999999999999999999999999999999999999999999999999999999999441900687850451668839949439304032734642622072840430341203551834361507501998662990392847645576
1.99999999999999999999999999999999999999999999999999999999999999999999999999999999999999999999999999999997209503439252258344199747196520163673213110364202151706017759171807537509993314951964238227880
1.99999999999999999999999999999999999999999999999999999999999999999999999999999999999999999999999999999998604751719626129172099873598260081836606555182101075853008879585903768754996657475982119113940
1.999999999999999999999999999999999999999999999999999999999999999999999999999999999999999999999999999999993023758598130645860499367991300409183032775910505379265044397929518843774983287379910595569701
1.999999999999999999999999999999999999999999999999999999999999999999999999999999999999999999999999999999996511879299065322930249683995650204591516387955252689632522198964759421887491643689955297784851
1.9999999999999999999999999999999999999999999999999999999999999999999999999999999999999999999999999999999982559396495326614651248419978251022957581939776263448162610994823797109437458218449776488924253
1.9999999999999999999999999999999999999999999999999999999999999999999999999999999999999999999999999999999991279698247663307325624209989125511478790969888131724081305497411898554718729109224888244462126
1.99999999999999999999999999999999999999999999999999999999999999999999999999999999999999999999999999999999956398491238316536628121049945627557393954849440658620406527487059492773593645546124441222310632
1.99999999999999999999999999999999999999999999999999999999999999999999999999999999999999999999999999999999978199245619158268314060524972813778696977424720329310203263743529746386796822773062220611155316
1.999999999999999999999999999999999999999999999999999999999999999999999999999999999999999999999999999999999890996228095791341570302624864068893484887123601646551016318717648731933984113865311103055776580
1.999999999999999999999999999999999999999999999999999999999999999999999999999999999999999999999999999999999945498114047895670785151312432034446742443561800823275508159358824365966992056932655551527888290
1.9999999999999999999999999999999999999999999999999999999999999999999999999999999999999999999999999999999999727490570239478353925756562160172233712217809004116377540796794121829834960284663277757639441449
1.9999999999999999999999999999999999999999999999999999999999999999999999999999999999999999999999999999999999863745285119739176962878281080086116856108904502058188770398397060914917480142331638878819720725
1.99999999999999999999999999999999999999999999999999999999999999999999999999999999999999999999999999999999999318726425598695884814391405400430584280544522510290943851991985304574587400711658194394098603623
1.99999999999999999999999999999999999999999999999999999999999999999999999999999999999999999999999999999999999659363212799347942407195702700215292140272261255145471925995992652287293700355829097197049301811
1.999999999999999999999999999999999999999999999999999999999999999999999999999999999999999999999999999999999998296816063996739712035978513501076460701361306275727359629979963261436468501779145485985246509057
1.999999999999999999999999999999999999999999999999999999999999999999999999999999999999999999999999999999999999148408031998369856017989256750538230350680653137863679814989981630718234250889572742992623254529
1.9999999999999999999999999999999999999999999999999999999999999999999999999999999999999999999999999999999999995742040159991849280089946283752691151753403265689318399074949908153591171254447863714963116272643
1.9999999999999999999999999999999999999999999999999999999999999999999999999999999999999999999999999999999999997871020079995924640044973141876345575876701632844659199537474954076795585627223931857481558136322
1.99999999999999999999999999999999999999999999999999999999999999999999999999999999999999999999999999999999999989355100399979623200224865709381727879383508164223295997687374770383977928136119659287407790681608
1.99999999999999999999999999999999999999999999999999999999999999999999999999999999999999999999999999999999999994677550199989811600112432854690863939691754082111647998843687385191988964068059829643703895340804
1.999999999999999999999999999999999999999999999999999999999999999999999999999999999999999999999999999999999999973387750999949058000562164273454319698458770410558239994218436925959944820340299148218519476704019
1.999999999999999999999999999999999999999999999999999999999999999999999999999999999999999999999999999999999999986693875499974529000281082136727159849229385205279119997109218462979972410170149574109259738352010
1.9999999999999999999999999999999999999999999999999999999999999999999999999999999999999999999999999999999999999933469377499872645001405410683635799246146926026395599985546092314899862050850747870546298691760048
1.9999999999999999999999999999999999999999999999999999999999999999999999999999999999999999999999999999999999999966734688749936322500702705341817899623073463013197799992773046157449931025425373935273149345880024
1.99999999999999999999999999999999999999999999999999999999999999999999999999999999999999999999999999999999999999833673443749681612503513526709089498115367315065988999963865230787249655127126869676365746729400121
1.99999999999999999999999999999999999999999999999999999999999999999999999999999999999999999999999999999999999999916836721874840806251756763354544749057683657532994499981932615393624827563563434838182873364700061
1.999999999999999999999999999999999999999999999999999999999999999999999999999999999999999999999999999999999999999584183609374204031258783816772723745288418287664972499909663076968124137817817174190914366823500303
1.999999999999999999999999999999999999999999999999999999999999999999999999999999999999999999999999999999999999999792091804687102015629391908386361872644209143832486249954831538484062068908908587095457183411750151
1.9999999999999999999999999999999999999999999999999999999999999999999999999999999999999999999999999999999999999998960459023435510078146959541931809363221045719162431249774157692420310344544542935477285917058750756
1.9999999999999999999999999999999999999999999999999999999999999999999999999999999999999999999999999999999999999999480229511717755039073479770965904681610522859581215624887078846210155172272271467738642958529375378
1.99999999999999999999999999999999999999999999999999999999999999999999999999999999999999999999999999999999999999997401147558588775195367398854829523408052614297906078124435394231050775861361357338693214792646876891
1.99999999999999999999999999999999999999999999999999999999999999999999999999999999999999999999999999999999999999998700573779294387597683699427414761704026307148953039062217697115525387930680678669346607396323438445
1.999999999999999999999999999999999999999999999999999999999999999999999999999999999999999999999999999999999999999993502868896471937988418497137073808520131535744765195311088485577626939653403393346733036981617192227
1.999999999999999999999999999999999999999999999999999999999999999999999999999999999999999999999999999999999999999996751434448235968994209248568536904260065767872382597655544242788813469826701696673366518490808596114
1.9999999999999999999999999999999999999999999999999999999999999999999999999999999999999999999999999999999999999999983757172241179844971046242842684521300328839361912988277721213944067349133508483366832592454042980568
1.9999999999999999999999999999999999999999999999999999999999999999999999999999999999999999999999999999999999999999991878586120589922485523121421342260650164419680956494138860606972033674566754241683416296227021490284
1.99999999999999999999999999999999999999999999999999999999999999999999999999999999999999999999999999999999999999999959392930602949612427615607106711303250822098404782470694303034860168372833771208417081481135107451420
1.99999999999999999999999999999999999999999999999999999999999999999999999999999999999999999999999999999999999999999979696465301474806213807803553355651625411049202391235347151517430084186416885604208540740567553725710
1.999999999999999999999999999999999999999999999999999999999999999999999999999999999999999999999999999999999999999999898482326507374031069039017766778258127055246011956176735757587150420932084428021042703702837768628551
1.999999999999999999999999999999999999999999999999999999999999999999999999999999999999999999999999999999999999999999949241163253687015534519508883389129063527623005978088367878793575210466042214010521351851418884314275
1.9999999999999999999999999999999999999999999999999999999999999999999999999999999999999999999999999999999999999999999746205816268435077672597544416945645317638115029890441839393967876052330211070052606759257094421571377
1.9999999999999999999999999999999999999999999999999999999999999999999999999999999999999999999999999999999999999999999873102908134217538836298772208472822658819057514945220919696983938026165105535026303379628547210785689
1.99999999999999999999999999999999999999999999999999999999999999999999999999999999999999999999999999999999999999999999365514540671087694181493861042364113294095287574726104598484919690130825527675131516898142736053928443
1.99999999999999999999999999999999999999999999999999999999999999999999999999999999999999999999999999999999999999999999682757270335543847090746930521182056647047643787363052299242459845065412763837565758449071368026964221
1.999999999999999999999999999999999999999999999999999999999999999999999999999999999999999999999999999999999999999999998413786351677719235453734652605910283235238218936815261496212299225327063819187828792245356840134821106
1.999999999999999999999999999999999999999999999999999999999999999999999999999999999999999999999999999999999999999999999206893175838859617726867326302955141617619109468407630748106149612663531909593914396122678420067410553
1.9999999999999999999999999999999999999999999999999999999999999999999999999999999999999999999999999999999999999999999996034465879194298088634336631514775708088095547342038153740530748063317659547969571980613392100337052766
1.9999999999999999999999999999999999999999999999999999999999999999999999999999999999999999999999999999999999999999999998017232939597149044317168315757387854044047773671019076870265374031658829773984785990306696050168526383
1.99999999999999999999999999999999999999999999999999999999999999999999999999999999999999999999999999999999999999999999990086164697985745221585841578786939270220238868355095384351326870158294148869923929951533480250842631915
1.99999999999999999999999999999999999999999999999999999999999999999999999999999999999999999999999999999999999999999999995043082348992872610792920789393469635110119434177547692175663435079147074434961964975766740125421315958
1.999999999999999999999999999999999999999999999999999999999999999999999999999999999999999999999999999999999999999999999975215411744964363053964603946967348175550597170887738460878317175395735372174809824878833700627106579788
1.999999999999999999999999999999999999999999999999999999999999999999999999999999999999999999999999999999999999999999999987607705872482181526982301973483674087775298585443869230439158587697867686087404912439416850313553289894
1.9999999999999999999999999999999999999999999999999999999999999999999999999999999999999999999999999999999999999999999999938038529362410907634911509867418370438876492927219346152195792938489338430437024562197084251567766449471
1.9999999999999999999999999999999999999999999999999999999999999999999999999999999999999999999999999999999999999999999999969019264681205453817455754933709185219438246463609673076097896469244669215218512281098542125783883224736
1.99999999999999999999999999999999999999999999999999999999999999999999999999999999999999999999999999999999999999999999999845096323406027269087278774668545926097191232318048365380489482346223346076092561405492710628919416123678
1.99999999999999999999999999999999999999999999999999999999999999999999999999999999999999999999999999999999999999999999999922548161703013634543639387334272963048595616159024182690244741173111673038046280702746355314459708061839
