
0	0	0.0
1	0	0.0
2	0	0.0
3	0	0.0
4	24500	0.8167755700760101
5	0	0.0
6	24757	0.8253984130159365
7	23948	0.7984529723602174
8	0	0.0
9	23919	0.7975392617785335
10	24073	0.8027009003001
11	23489	0.7832538597485745
12	24031	0.8013538748832867
13	0	0.0
14	24082	0.8031081171213232
15	23644	0.7885275971318992
16	23617	0.7876534151547492
17	22846	0.7619651135643531
18	23955	0.7989793876325796
19	23391	0.7801941229445315
20	23990	0.8002001334222815
21	0	0.0
22	23892	0.796984455267196
23	23136	0.7717917069753477
24	23980	0.7999733119829197
25	22331	0.7449874895746456
26	23244	0.7754720757990258
27	23545	0.7855403196209922
28	24174	0.8065527825970906
29	22320	0.7447198958993694
30	24109	0.8044377711044378
31	22711	0.7578164102906336
32	23568	0.7864388681260011
33	23062	0.7695798711916442
34	0	0.0
35	23158	0.7728349741364926
36	23388	0.7805366439727673
37	22090	0.737242599205687
38	22996	0.7675055069755023
39	22995	0.7674977470711926
40	23217	0.7749332443257677
41	21713	0.7247571681297773
42	23784	0.793911476066493
43	22932	0.7654972126714958
44	23136	0.7723327547069034
45	22878	0.7637456184276414
46	23011	0.7682112572611337
47	22180	0.7404934397222315
48	23768	0.7935363247863247
49	22140	0.7392073720410003
50	23670	0.7903171953255426
51	23106	0.7715115696684364
52	23283	0.7774475757980499
53	22228	0.7422446321835242
54	24185	0.8076203833567087
55	0	0.0
56	23124	0.7722415174993321
57	22350	0.7464181945696824
58	23797	0.7947698884510053
59	23269	0.7771617514445075
60	23662	0.7903139612558451
61	23329	0.7792177427435786
62	23656	0.7901663437771395
63	23324	0.7791027825099376
64	22872	0.7640299305184394
65	22270	0.743945214631702
66	23534	0.7861962985234182
67	22461	0.7503758393746033
68	22742	0.7597888547374048
69	22399	0.7483545487955632
70	23630	0.7895088539926495
71	22214	0.7422232617194026
72	23827	0.796144079123229
73	21703	0.7251979817556053
74	23718	0.7925549689233442
75	23005	0.7687552213868003
76	22722	0.7593236198369202
77	22105	0.7387294054740501
78	23524	0.7861773945591872
79	22875	0.764513218141105
80	23294	0.7785427807486631
81	22332	0.7464153213676927
82	23440	0.7834748312052945
83	22847	0.7636795133201858
84	23979	0.801544324107501
85	22203	0.7422029082400133
86	23447	0.7838135989837535
87	22927	0.7664560558954301
88	22959	0.7675514843541054
89	0	0.0
90	23591	0.788732865262454
91	22395	0.7487712728610117
92	22734	0.7601310686104052
93	22346	0.7471829337613268
94	23905	0.7993379254998997
95	23332	0.780203979267681
96	23260	0.7778223649010166
97	22127	0.7399592014179179
98	23523	0.7866697879740485
99	22535	0.7536537239557205

